{
   "mappings":{
      "dynamic": false,		   
      "properties":{
	 "id":{
	    "type": "integer"
	 },
	 "location":{
	    "type": "geo_point"	
	 },
	 "cityId":{
	    "type": "integer"
	 },
	 "active":{
	    "type": "boolean"
	 }
      }
   }
}
